\BOOKMARK [2][]{Outline0.1}{Efficiency of pre-sorting}{}% 1
\BOOKMARK [3][]{Outline0.1.1.3}{Influence of map size}{Outline0.1}% 2
\BOOKMARK [3][]{Outline0.1.2.6}{Average time savings}{Outline0.1}% 3
\BOOKMARK [3][]{Outline0.1.3.7}{Consequences of benchmarking}{Outline0.1}% 4
\BOOKMARK [2][]{Outline0.2}{End}{}% 5
