\BOOKMARK [2][]{Outline0.1}{Networking}{}% 1
\BOOKMARK [3][]{Outline0.1.1.3}{Messages}{Outline0.1}% 2
\BOOKMARK [3][]{Outline0.1.2.4}{Message handling}{Outline0.1}% 3
\BOOKMARK [2][]{Outline0.2}{Rating function}{}% 4
\BOOKMARK [2][]{Outline0.3}{Miscellaneous changes}{}% 5
\BOOKMARK [3][]{Outline0.3.1.6}{Recoloring queue}{Outline0.3}% 6
\BOOKMARK [2][]{Outline0.4}{End}{}% 7
