\BOOKMARK [2][]{Outline0.1}{Aspiration window}{}% 1
\BOOKMARK [3][]{Outline0.1.1.3}{Benchmarking I}{Outline0.1}% 2
\BOOKMARK [3][]{Outline0.1.2.4}{Benchmarking II}{Outline0.1}% 3
\BOOKMARK [3][]{Outline0.1.3.5}{Benchmarking III}{Outline0.1}% 4
\BOOKMARK [2][]{Outline0.2}{Our own function}{}% 5
\BOOKMARK [2][]{Outline0.3}{Bombing strategy}{}% 6
\BOOKMARK [3][]{Outline0.3.1.7}{Bombing strategy}{Outline0.3}% 7
\BOOKMARK [3][]{Outline0.3.2.8}{End}{Outline0.3}% 8
