\beamer@endinputifotherversion {3.26pt}
\headcommand {\slideentry {0}{0}{1}{1/1}{}{0}}
\headcommand {\beamer@framepages {1}{1}}
\headcommand {\slideentry {0}{0}{2}{2/2}{}{0}}
\headcommand {\beamer@framepages {2}{2}}
\headcommand {\sectionentry {1}{Networking}{3}{Networking}{0}}
\headcommand {\beamer@sectionpages {1}{2}}
\headcommand {\beamer@subsectionpages {1}{2}}
\headcommand {\beamer@subsectionentry {0}{1}{1}{3}{Messages}}\headcommand {\beamer@subsectionpages {3}{2}}
\headcommand {\slideentry {1}{1}{1}{3/3}{Messages}{0}}
\headcommand {\beamer@framepages {3}{3}}
\headcommand {\beamer@subsectionentry {0}{1}{2}{4}{Message handling}}\headcommand {\beamer@subsectionpages {3}{3}}
\headcommand {\slideentry {1}{2}{1}{4/4}{Message handling}{0}}
\headcommand {\beamer@framepages {4}{4}}
\headcommand {\sectionentry {2}{Rating function}{5}{Rating function}{0}}
\headcommand {\beamer@sectionpages {3}{4}}
\headcommand {\beamer@subsectionpages {4}{4}}
\headcommand {\slideentry {2}{0}{2}{5/5}{}{0}}
\headcommand {\beamer@framepages {5}{5}}
\headcommand {\sectionentry {3}{Miscellaneous changes}{6}{Miscellaneous changes}{0}}
\headcommand {\beamer@sectionpages {5}{5}}
\headcommand {\beamer@subsectionpages {5}{5}}
\headcommand {\beamer@subsectionentry {0}{3}{1}{6}{Recoloring queue}}\headcommand {\beamer@subsectionpages {6}{5}}
\headcommand {\slideentry {3}{1}{1}{6/6}{Recoloring queue}{0}}
\headcommand {\beamer@framepages {6}{6}}
\headcommand {\slideentry {3}{1}{2}{7/7}{Recoloring queue}{0}}
\headcommand {\beamer@framepages {7}{7}}
\headcommand {\slideentry {3}{1}{3}{8/8}{Recoloring queue}{0}}
\headcommand {\beamer@framepages {8}{8}}
\headcommand {\sectionentry {4}{End}{9}{End}{0}}
\headcommand {\beamer@sectionpages {6}{8}}
\headcommand {\beamer@subsectionpages {6}{8}}
\headcommand {\slideentry {4}{0}{4}{9/9}{}{0}}
\headcommand {\beamer@framepages {9}{9}}
\headcommand {\beamer@partpages {1}{9}}
\headcommand {\beamer@subsectionpages {9}{9}}
\headcommand {\beamer@sectionpages {9}{9}}
\headcommand {\beamer@documentpages {9}}
\headcommand {\def \inserttotalframenumber {9}}
