\BOOKMARK [2][]{Outline0.1}{UML Class diagramm}{}% 1
\BOOKMARK [2][]{Outline0.2}{Implementation}{}% 2
\BOOKMARK [3][]{Outline0.2.1.4}{Problems while implementing}{Outline0.2}% 3
\BOOKMARK [2][]{Outline0.3}{Algorithm to rate a player's move}{}% 4
\BOOKMARK [3][]{Outline0.3.1.9}{Algorithm I}{Outline0.3}% 5
\BOOKMARK [3][]{Outline0.3.2.12}{Algorithm II}{Outline0.3}% 6
\BOOKMARK [2][]{Outline0.4}{End}{}% 7
