\beamer@endinputifotherversion {3.26pt}
\select@language {english}
\beamer@sectionintoc {1}{Aspiration window}{3}{0}{1}
\beamer@subsectionintoc {1}{1}{Benchmarking I}{3}{0}{1}
\beamer@subsectionintoc {1}{2}{Benchmarking II}{4}{0}{1}
\beamer@subsectionintoc {1}{3}{Benchmarking III}{5}{0}{1}
\beamer@sectionintoc {2}{Our own function}{6}{0}{2}
\beamer@sectionintoc {3}{Bombing strategy}{7}{0}{3}
\beamer@subsectionintoc {3}{1}{Bombing strategy}{7}{0}{3}
\beamer@subsectionintoc {3}{2}{End}{8}{0}{3}
